ECER Submission Analyses
…
Joining with `by = join_by(document)`

data <- read.csv("data.csv", header=T) %>% 
            rename(title=contribution_title, network=contribution_network) %>%
            mutate(document=(as.character(X))) %>% 
            select(document, title, network, year)

glo_col_uni <- glo_col %>% unique()  %>% left_join(data)

Joining with `by = join_by(document)`

glo_col_uni

# A tibble: 18,529 × 35
   document children, parent, fa…¹ cultur, divers, educ…² educ, art, creativ, …³
   <chr>                     <dbl>                  <dbl>                  <dbl>
 1 12483                  0.000911               0.000911               0.000911
 2 12484                  0.000571               0.000571               0.0108  
 3 12485                  0.291                  0.00121                0.0229  
 4 12486                  0.000887               0.000887               0.0168  
 5 12487                  0.000631               0.00442                0.0234  
 6 12488                  0.00225                0.00225                0.00225 
 7 12489                  0.134                  0.000672               0.000672
 8 12490                  0.000597               0.133                  0.00418 
 9 12491                  0.000958               0.116                  0.386   
10 12492                  0.00805                0.00434                0.000620
# ℹ 18,519 more rows
# ℹ abbreviated names: ¹​`children, parent, famili, children', child`,
#   ²​`cultur, divers, educ, immigr, intercultur`,
#   ³​`educ, art, creativ, experi, think`
# ℹ 31 more variables: `educ, context, explor, engag, across` <dbl>,
#   `educ, countri, system, state, nation` <dbl>,
#   `educ, european, train, project, process` <dbl>, …
…
